2023-06-30 19:37:20.476 +07:00 [DBG] TaskSchedulingThreadPool configured with max concurrency of 10 and TaskScheduler ThreadPoolTaskScheduler.
2023-06-30 19:37:20.578 +07:00 [INF] Initialized Scheduler Signaller of type: Quartz.Core.SchedulerSignalerImpl
2023-06-30 19:37:20.579 +07:00 [INF] Quartz Scheduler created
2023-06-30 19:37:20.580 +07:00 [INF] JobFactory set to: Quartz.Simpl.MicrosoftDependencyInjectionJobFactory
2023-06-30 19:37:20.581 +07:00 [INF] RAMJobStore initialized.
2023-06-30 19:37:20.582 +07:00 [INF] Quartz Scheduler 3.6.2.0 - 'QuartzScheduler' with instanceId 'NON_CLUSTERED' initialized
2023-06-30 19:37:20.583 +07:00 [INF] Using thread pool 'Quartz.Simpl.DefaultThreadPool', size: 10
2023-06-30 19:37:20.584 +07:00 [INF] Using job store 'Quartz.Simpl.RAMJobStore', supports persistence: False, clustered: False
2023-06-30 19:37:20.609 +07:00 [INF] Adding 1 jobs, 1 triggers.
2023-06-30 19:37:20.612 +07:00 [INF] Adding job: DEFAULT.SiteReportSchedule
2023-06-30 19:37:20.620 +07:00 [DBG] Scheduling job: DEFAULT.SiteReportSchedule with trigger: DEFAULT.SiteReportSchedule-trigger
2023-06-30 19:37:20.656 +07:00 [DBG] Rescheduling job: DEFAULT.SiteReportSchedule with updated trigger: DEFAULT.SiteReportSchedule-trigger
2023-06-30 19:37:20.979 +07:00 [INF] Now listening on: http://localhost:5280
2023-06-30 19:37:20.985 +07:00 [INF] Application started. Press Ctrl+C to shut down.
2023-06-30 19:37:20.985 +07:00 [INF] Hosting environment: Development
2023-06-30 19:37:20.986 +07:00 [INF] Content root path: C:\Project\IFMApps\IFMApps
2023-06-30 19:37:21.059 +07:00 [INF] Scheduler QuartzScheduler_$_NON_CLUSTERED started.
2023-06-30 19:37:21.065 +07:00 [DBG] Batch acquisition of 0 triggers
2023-06-30 19:37:24.608 +07:00 [WRN] Failed to determine the https port for redirect.
2023-06-30 19:37:47.051 +07:00 [DBG] Batch acquisition of 0 triggers
2023-06-30 19:38:16.566 +07:00 [DBG] Batch acquisition of 0 triggers
2023-06-30 19:38:45.022 +07:00 [DBG] Batch acquisition of 0 triggers
2023-06-30 19:39:09.113 +07:00 [DBG] Batch acquisition of 0 triggers
2023-06-30 19:39:36.166 +07:00 [DBG] Batch acquisition of 0 triggers
2023-06-30 19:40:03.098 +07:00 [DBG] Batch acquisition of 0 triggers
2023-06-30 19:40:30.521 +07:00 [DBG] Batch acquisition of 0 triggers
2023-06-30 19:40:53.773 +07:00 [DBG] Batch acquisition of 0 triggers
2023-06-30 19:41:21.364 +07:00 [DBG] Batch acquisition of 0 triggers
2023-06-30 19:41:48.236 +07:00 [DBG] Batch acquisition of 0 triggers
2023-06-30 19:42:15.116 +07:00 [DBG] Batch acquisition of 0 triggers
2023-06-30 19:42:39.394 +07:00 [DBG] Batch acquisition of 0 triggers
2023-06-30 20:14:15.828 +07:00 [DBG] TaskSchedulingThreadPool configured with max concurrency of 10 and TaskScheduler ThreadPoolTaskScheduler.
2023-06-30 20:14:15.854 +07:00 [INF] Initialized Scheduler Signaller of type: Quartz.Core.SchedulerSignalerImpl
2023-06-30 20:14:15.854 +07:00 [INF] Quartz Scheduler created
2023-06-30 20:14:15.855 +07:00 [INF] JobFactory set to: Quartz.Simpl.MicrosoftDependencyInjectionJobFactory
2023-06-30 20:14:15.855 +07:00 [INF] RAMJobStore initialized.
2023-06-30 20:14:15.856 +07:00 [INF] Quartz Scheduler 3.6.2.0 - 'QuartzScheduler' with instanceId 'NON_CLUSTERED' initialized
2023-06-30 20:14:15.856 +07:00 [INF] Using thread pool 'Quartz.Simpl.DefaultThreadPool', size: 10
2023-06-30 20:14:15.856 +07:00 [INF] Using job store 'Quartz.Simpl.RAMJobStore', supports persistence: False, clustered: False
2023-06-30 20:14:15.865 +07:00 [INF] Adding 1 jobs, 1 triggers.
2023-06-30 20:14:15.867 +07:00 [INF] Adding job: DEFAULT.SiteReportSchedule
2023-06-30 20:14:15.869 +07:00 [DBG] Scheduling job: DEFAULT.SiteReportSchedule with trigger: DEFAULT.SiteReportSchedule-trigger
2023-06-30 20:14:15.878 +07:00 [DBG] Rescheduling job: DEFAULT.SiteReportSchedule with updated trigger: DEFAULT.SiteReportSchedule-trigger
2023-06-30 20:14:15.950 +07:00 [INF] Now listening on: http://localhost:5280
2023-06-30 20:14:15.951 +07:00 [INF] Application started. Press Ctrl+C to shut down.
2023-06-30 20:14:15.951 +07:00 [INF] Hosting environment: Development
2023-06-30 20:14:15.951 +07:00 [INF] Content root path: C:\Project\IFMApps\IFMApps
2023-06-30 20:14:15.983 +07:00 [INF] Scheduler QuartzScheduler_$_NON_CLUSTERED started.
2023-06-30 20:14:15.985 +07:00 [DBG] Batch acquisition of 0 triggers
2023-06-30 20:14:16.525 +07:00 [WRN] Failed to determine the https port for redirect.
2023-06-30 20:14:45.150 +07:00 [DBG] Batch acquisition of 0 triggers
2023-06-30 20:15:08.719 +07:00 [DBG] Batch acquisition of 0 triggers
2023-06-30 20:15:36.220 +07:00 [DBG] Batch acquisition of 0 triggers
2023-06-30 20:16:04.976 +07:00 [DBG] Batch acquisition of 0 triggers
2023-06-30 20:18:17.976 +07:00 [DBG] TaskSchedulingThreadPool configured with max concurrency of 10 and TaskScheduler ThreadPoolTaskScheduler.
2023-06-30 20:18:18.002 +07:00 [INF] Initialized Scheduler Signaller of type: Quartz.Core.SchedulerSignalerImpl
2023-06-30 20:18:18.002 +07:00 [INF] Quartz Scheduler created
2023-06-30 20:18:18.003 +07:00 [INF] JobFactory set to: Quartz.Simpl.MicrosoftDependencyInjectionJobFactory
2023-06-30 20:18:18.003 +07:00 [INF] RAMJobStore initialized.
2023-06-30 20:18:18.004 +07:00 [INF] Quartz Scheduler 3.6.2.0 - 'QuartzScheduler' with instanceId 'NON_CLUSTERED' initialized
2023-06-30 20:18:18.004 +07:00 [INF] Using thread pool 'Quartz.Simpl.DefaultThreadPool', size: 10
2023-06-30 20:18:18.005 +07:00 [INF] Using job store 'Quartz.Simpl.RAMJobStore', supports persistence: False, clustered: False
2023-06-30 20:18:18.017 +07:00 [INF] Adding 1 jobs, 1 triggers.
2023-06-30 20:18:18.018 +07:00 [INF] Adding job: DEFAULT.SiteReportSchedule
2023-06-30 20:18:18.021 +07:00 [DBG] Scheduling job: DEFAULT.SiteReportSchedule with trigger: DEFAULT.SiteReportSchedule-trigger
2023-06-30 20:18:18.033 +07:00 [DBG] Rescheduling job: DEFAULT.SiteReportSchedule with updated trigger: DEFAULT.SiteReportSchedule-trigger
2023-06-30 20:18:18.114 +07:00 [INF] Now listening on: http://localhost:5280
2023-06-30 20:18:18.115 +07:00 [INF] Application started. Press Ctrl+C to shut down.
2023-06-30 20:18:18.115 +07:00 [INF] Hosting environment: Development
2023-06-30 20:18:18.115 +07:00 [INF] Content root path: C:\Project\IFMApps\IFMApps
2023-06-30 20:18:18.124 +07:00 [INF] Scheduler QuartzScheduler_$_NON_CLUSTERED started.
2023-06-30 20:18:18.126 +07:00 [DBG] Batch acquisition of 0 triggers
2023-06-30 20:18:18.506 +07:00 [WRN] Failed to determine the https port for redirect.
2023-06-30 20:18:42.919 +07:00 [DBG] Batch acquisition of 0 triggers
2023-06-30 20:19:07.751 +07:00 [DBG] Batch acquisition of 0 triggers
2023-06-30 20:19:31.155 +07:00 [DBG] Batch acquisition of 0 triggers
2023-06-30 20:19:55.921 +07:00 [DBG] Batch acquisition of 0 triggers
2023-06-30 20:20:20.914 +07:00 [DBG] Batch acquisition of 0 triggers
2023-06-30 20:20:50.433 +07:00 [DBG] Batch acquisition of 0 triggers
2023-06-30 20:21:19.719 +07:00 [DBG] Batch acquisition of 0 triggers
2023-06-30 20:21:48.087 +07:00 [DBG] Batch acquisition of 0 triggers
2023-06-30 20:22:15.017 +07:00 [DBG] Batch acquisition of 0 triggers
2023-06-30 20:22:42.506 +07:00 [DBG] Batch acquisition of 0 triggers
2023-06-30 20:23:07.809 +07:00 [DBG] Batch acquisition of 0 triggers
2023-06-30 20:23:34.284 +07:00 [DBG] Batch acquisition of 0 triggers
2023-06-30 20:24:03.988 +07:00 [DBG] Batch acquisition of 0 triggers
2023-06-30 20:36:01.160 +07:00 [DBG] TaskSchedulingThreadPool configured with max concurrency of 10 and TaskScheduler ThreadPoolTaskScheduler.
2023-06-30 20:36:01.214 +07:00 [INF] Initialized Scheduler Signaller of type: Quartz.Core.SchedulerSignalerImpl
2023-06-30 20:36:01.215 +07:00 [INF] Quartz Scheduler created
2023-06-30 20:36:01.216 +07:00 [INF] JobFactory set to: Quartz.Simpl.MicrosoftDependencyInjectionJobFactory
2023-06-30 20:36:01.216 +07:00 [INF] RAMJobStore initialized.
2023-06-30 20:36:01.217 +07:00 [INF] Quartz Scheduler 3.6.2.0 - 'QuartzScheduler' with instanceId 'NON_CLUSTERED' initialized
2023-06-30 20:36:01.217 +07:00 [INF] Using thread pool 'Quartz.Simpl.DefaultThreadPool', size: 10
2023-06-30 20:36:01.217 +07:00 [INF] Using job store 'Quartz.Simpl.RAMJobStore', supports persistence: False, clustered: False
2023-06-30 20:36:01.234 +07:00 [INF] Adding 1 jobs, 1 triggers.
2023-06-30 20:36:01.237 +07:00 [INF] Adding job: DEFAULT.SiteReportSchedule
2023-06-30 20:36:01.241 +07:00 [DBG] Scheduling job: DEFAULT.SiteReportSchedule with trigger: DEFAULT.SiteReportSchedule-trigger
2023-06-30 20:36:01.258 +07:00 [DBG] Rescheduling job: DEFAULT.SiteReportSchedule with updated trigger: DEFAULT.SiteReportSchedule-trigger
2023-06-30 20:36:01.377 +07:00 [INF] Now listening on: http://localhost:5280
2023-06-30 20:36:01.378 +07:00 [INF] Application started. Press Ctrl+C to shut down.
2023-06-30 20:36:01.378 +07:00 [INF] Hosting environment: Development
2023-06-30 20:36:01.378 +07:00 [INF] Content root path: C:\Project\IFMApps\IFMApps
2023-06-30 20:36:01.388 +07:00 [INF] Scheduler QuartzScheduler_$_NON_CLUSTERED started.
2023-06-30 20:36:01.391 +07:00 [DBG] Batch acquisition of 0 triggers
2023-06-30 20:36:02.328 +07:00 [WRN] Failed to determine the https port for redirect.
2023-06-30 20:36:28.395 +07:00 [DBG] Batch acquisition of 0 triggers
2023-06-30 20:36:54.768 +07:00 [DBG] Batch acquisition of 0 triggers
2023-06-30 20:37:27.133 +07:00 [DBG] TaskSchedulingThreadPool configured with max concurrency of 10 and TaskScheduler ThreadPoolTaskScheduler.
2023-06-30 20:37:27.157 +07:00 [INF] Initialized Scheduler Signaller of type: Quartz.Core.SchedulerSignalerImpl
2023-06-30 20:37:27.158 +07:00 [INF] Quartz Scheduler created
2023-06-30 20:37:27.158 +07:00 [INF] JobFactory set to: Quartz.Simpl.MicrosoftDependencyInjectionJobFactory
2023-06-30 20:37:27.158 +07:00 [INF] RAMJobStore initialized.
2023-06-30 20:37:27.158 +07:00 [INF] Quartz Scheduler 3.6.2.0 - 'QuartzScheduler' with instanceId 'NON_CLUSTERED' initialized
2023-06-30 20:37:27.159 +07:00 [INF] Using thread pool 'Quartz.Simpl.DefaultThreadPool', size: 10
2023-06-30 20:37:27.159 +07:00 [INF] Using job store 'Quartz.Simpl.RAMJobStore', supports persistence: False, clustered: False
2023-06-30 20:37:27.168 +07:00 [INF] Adding 1 jobs, 1 triggers.
2023-06-30 20:37:27.169 +07:00 [INF] Adding job: DEFAULT.SiteReportSchedule
2023-06-30 20:37:27.172 +07:00 [DBG] Scheduling job: DEFAULT.SiteReportSchedule with trigger: DEFAULT.SiteReportSchedule-trigger
2023-06-30 20:37:27.181 +07:00 [DBG] Rescheduling job: DEFAULT.SiteReportSchedule with updated trigger: DEFAULT.SiteReportSchedule-trigger
2023-06-30 20:37:27.227 +07:00 [INF] Now listening on: http://localhost:5280
2023-06-30 20:37:27.227 +07:00 [INF] Application started. Press Ctrl+C to shut down.
2023-06-30 20:37:27.228 +07:00 [INF] Hosting environment: Development
2023-06-30 20:37:27.228 +07:00 [INF] Content root path: C:\Project\IFMApps\IFMApps
2023-06-30 20:37:27.230 +07:00 [INF] Scheduler QuartzScheduler_$_NON_CLUSTERED started.
2023-06-30 20:37:27.232 +07:00 [DBG] Batch acquisition of 0 triggers
2023-06-30 20:37:27.844 +07:00 [WRN] Failed to determine the https port for redirect.
2023-06-30 20:37:54.307 +07:00 [DBG] Batch acquisition of 0 triggers
2023-06-30 20:38:21.232 +07:00 [DBG] Batch acquisition of 0 triggers
2023-06-30 20:38:44.820 +07:00 [DBG] Batch acquisition of 0 triggers
2023-06-30 20:39:10.054 +07:00 [DBG] Batch acquisition of 0 triggers
2023-06-30 20:39:39.275 +07:00 [DBG] Batch acquisition of 0 triggers
2023-06-30 20:40:05.223 +07:00 [DBG] Batch acquisition of 0 triggers
2023-06-30 20:40:34.581 +07:00 [DBG] Batch acquisition of 0 triggers
2023-06-30 20:40:58.750 +07:00 [DBG] Batch acquisition of 0 triggers
2023-06-30 20:41:22.921 +07:00 [DBG] Batch acquisition of 0 triggers
2023-06-30 20:41:48.684 +07:00 [DBG] Batch acquisition of 0 triggers
2023-06-30 20:42:14.856 +07:00 [DBG] Batch acquisition of 0 triggers
2023-06-30 20:42:38.470 +07:00 [DBG] Batch acquisition of 0 triggers
2023-06-30 20:43:06.623 +07:00 [DBG] Batch acquisition of 0 triggers
2023-06-30 20:43:30.778 +07:00 [DBG] Batch acquisition of 0 triggers
2023-06-30 20:43:57.528 +07:00 [DBG] Batch acquisition of 0 triggers
2023-06-30 20:44:21.047 +07:00 [DBG] Batch acquisition of 0 triggers
2023-06-30 20:44:49.259 +07:00 [DBG] Batch acquisition of 0 triggers
2023-06-30 20:45:15.522 +07:00 [DBG] Batch acquisition of 0 triggers
2023-06-30 20:45:39.398 +07:00 [DBG] Batch acquisition of 0 triggers
2023-06-30 20:46:05.083 +07:00 [DBG] Batch acquisition of 0 triggers
2023-06-30 20:46:34.696 +07:00 [DBG] Batch acquisition of 0 triggers
2023-06-30 20:47:01.452 +07:00 [DBG] Batch acquisition of 0 triggers
2023-06-30 20:47:31.259 +07:00 [DBG] Batch acquisition of 0 triggers
2023-06-30 20:48:00.344 +07:00 [DBG] Batch acquisition of 0 triggers
2023-06-30 20:48:26.196 +07:00 [DBG] Batch acquisition of 0 triggers
2023-06-30 20:48:54.708 +07:00 [DBG] Batch acquisition of 0 triggers
2023-06-30 20:49:22.728 +07:00 [DBG] Batch acquisition of 0 triggers
2023-06-30 20:49:45.780 +07:00 [DBG] Batch acquisition of 0 triggers
2023-06-30 20:50:11.977 +07:00 [DBG] Batch acquisition of 0 triggers
2023-06-30 20:50:40.524 +07:00 [DBG] Batch acquisition of 0 triggers
2023-06-30 20:51:09.320 +07:00 [DBG] Batch acquisition of 0 triggers
2023-06-30 20:51:36.080 +07:00 [DBG] Batch acquisition of 0 triggers
2023-06-30 20:52:00.651 +07:00 [DBG] Batch acquisition of 0 triggers
2023-06-30 20:52:27.186 +07:00 [DBG] Batch acquisition of 0 triggers
2023-06-30 20:52:54.246 +07:00 [DBG] Batch acquisition of 0 triggers
2023-06-30 20:53:22.174 +07:00 [DBG] Batch acquisition of 0 triggers
2023-06-30 20:53:47.547 +07:00 [DBG] Batch acquisition of 0 triggers
2023-06-30 20:54:14.912 +07:00 [DBG] Batch acquisition of 0 triggers
2023-06-30 20:54:44.570 +07:00 [DBG] Batch acquisition of 0 triggers
2023-06-30 20:55:07.745 +07:00 [DBG] Batch acquisition of 0 triggers
2023-06-30 20:55:33.238 +07:00 [DBG] Batch acquisition of 0 triggers
2023-06-30 20:55:58.163 +07:00 [DBG] Batch acquisition of 0 triggers
2023-06-30 20:56:22.091 +07:00 [DBG] Batch acquisition of 0 triggers
2023-06-30 20:56:47.430 +07:00 [DBG] Batch acquisition of 0 triggers
2023-06-30 20:57:08.612 +07:00 [DBG] TaskSchedulingThreadPool configured with max concurrency of 10 and TaskScheduler ThreadPoolTaskScheduler.
2023-06-30 20:57:08.631 +07:00 [INF] Initialized Scheduler Signaller of type: Quartz.Core.SchedulerSignalerImpl
2023-06-30 20:57:08.631 +07:00 [INF] Quartz Scheduler created
2023-06-30 20:57:08.631 +07:00 [INF] JobFactory set to: Quartz.Simpl.MicrosoftDependencyInjectionJobFactory
2023-06-30 20:57:08.632 +07:00 [INF] RAMJobStore initialized.
2023-06-30 20:57:08.632 +07:00 [INF] Quartz Scheduler 3.6.2.0 - 'QuartzScheduler' with instanceId 'NON_CLUSTERED' initialized
2023-06-30 20:57:08.632 +07:00 [INF] Using thread pool 'Quartz.Simpl.DefaultThreadPool', size: 10
2023-06-30 20:57:08.632 +07:00 [INF] Using job store 'Quartz.Simpl.RAMJobStore', supports persistence: False, clustered: False
2023-06-30 20:57:08.639 +07:00 [INF] Adding 1 jobs, 1 triggers.
2023-06-30 20:57:08.640 +07:00 [INF] Adding job: DEFAULT.SiteReportSchedule
2023-06-30 20:57:08.642 +07:00 [DBG] Scheduling job: DEFAULT.SiteReportSchedule with trigger: DEFAULT.SiteReportSchedule-trigger
2023-06-30 20:57:08.651 +07:00 [DBG] Rescheduling job: DEFAULT.SiteReportSchedule with updated trigger: DEFAULT.SiteReportSchedule-trigger
2023-06-30 20:57:08.685 +07:00 [INF] Now listening on: http://localhost:5280
2023-06-30 20:57:08.686 +07:00 [INF] Application started. Press Ctrl+C to shut down.
2023-06-30 20:57:08.686 +07:00 [INF] Hosting environment: Development
2023-06-30 20:57:08.686 +07:00 [INF] Content root path: C:\Project\IFMApps\IFMApps
2023-06-30 20:57:08.688 +07:00 [INF] Scheduler QuartzScheduler_$_NON_CLUSTERED started.
2023-06-30 20:57:08.690 +07:00 [DBG] Batch acquisition of 0 triggers
2023-06-30 20:57:09.127 +07:00 [WRN] Failed to determine the https port for redirect.
2023-06-30 20:57:37.111 +07:00 [DBG] Batch acquisition of 0 triggers
2023-06-30 20:58:00.835 +07:00 [DBG] Batch acquisition of 0 triggers
2023-06-30 20:58:30.164 +07:00 [DBG] Batch acquisition of 0 triggers
2023-06-30 20:58:56.254 +07:00 [DBG] Batch acquisition of 0 triggers
2023-06-30 20:59:24.709 +07:00 [DBG] Batch acquisition of 0 triggers
2023-06-30 20:59:52.251 +07:00 [DBG] Batch acquisition of 0 triggers
2023-06-30 21:00:17.197 +07:00 [DBG] Batch acquisition of 0 triggers
2023-06-30 21:00:42.794 +07:00 [DBG] Batch acquisition of 0 triggers
2023-06-30 21:01:07.131 +07:00 [DBG] Batch acquisition of 0 triggers
2023-06-30 21:01:31.696 +07:00 [DBG] Batch acquisition of 0 triggers
2023-06-30 21:01:55.306 +07:00 [DBG] Batch acquisition of 0 triggers
2023-06-30 21:02:18.651 +07:00 [DBG] Batch acquisition of 0 triggers
2023-06-30 21:02:42.262 +07:00 [DBG] Batch acquisition of 0 triggers
2023-06-30 21:03:10.427 +07:00 [DBG] Batch acquisition of 0 triggers
2023-06-30 21:03:38.053 +07:00 [DBG] Batch acquisition of 0 triggers
2023-06-30 21:04:04.184 +07:00 [DBG] Batch acquisition of 0 triggers
2023-06-30 21:04:33.911 +07:00 [DBG] Batch acquisition of 0 triggers
2023-06-30 21:05:01.015 +07:00 [DBG] Batch acquisition of 0 triggers
2023-06-30 21:22:46.862 +07:00 [DBG] TaskSchedulingThreadPool configured with max concurrency of 10 and TaskScheduler ThreadPoolTaskScheduler.
2023-06-30 21:22:46.887 +07:00 [INF] Initialized Scheduler Signaller of type: Quartz.Core.SchedulerSignalerImpl
2023-06-30 21:22:46.887 +07:00 [INF] Quartz Scheduler created
2023-06-30 21:22:46.888 +07:00 [INF] JobFactory set to: Quartz.Simpl.MicrosoftDependencyInjectionJobFactory
2023-06-30 21:22:46.888 +07:00 [INF] RAMJobStore initialized.
2023-06-30 21:22:46.888 +07:00 [INF] Quartz Scheduler 3.6.2.0 - 'QuartzScheduler' with instanceId 'NON_CLUSTERED' initialized
2023-06-30 21:22:46.888 +07:00 [INF] Using thread pool 'Quartz.Simpl.DefaultThreadPool', size: 10
2023-06-30 21:22:46.889 +07:00 [INF] Using job store 'Quartz.Simpl.RAMJobStore', supports persistence: False, clustered: False
2023-06-30 21:22:46.899 +07:00 [INF] Adding 1 jobs, 1 triggers.
2023-06-30 21:22:46.901 +07:00 [INF] Adding job: DEFAULT.SiteReportSchedule
2023-06-30 21:22:46.905 +07:00 [DBG] Scheduling job: DEFAULT.SiteReportSchedule with trigger: DEFAULT.SiteReportSchedule-trigger
2023-06-30 21:22:46.918 +07:00 [DBG] Rescheduling job: DEFAULT.SiteReportSchedule with updated trigger: DEFAULT.SiteReportSchedule-trigger
2023-06-30 21:22:46.993 +07:00 [INF] Now listening on: http://localhost:5280
2023-06-30 21:22:46.994 +07:00 [INF] Application started. Press Ctrl+C to shut down.
2023-06-30 21:22:46.994 +07:00 [INF] Hosting environment: Development
2023-06-30 21:22:46.994 +07:00 [INF] Content root path: C:\Project\IFMApps\IFMApps
2023-06-30 21:22:47.002 +07:00 [INF] Scheduler QuartzScheduler_$_NON_CLUSTERED started.
2023-06-30 21:22:47.005 +07:00 [DBG] Batch acquisition of 0 triggers
2023-06-30 21:22:47.742 +07:00 [WRN] Failed to determine the https port for redirect.
2023-06-30 21:23:13.603 +07:00 [DBG] Batch acquisition of 0 triggers
2023-06-30 21:23:39.852 +07:00 [DBG] Batch acquisition of 0 triggers
2023-06-30 21:24:33.725 +07:00 [DBG] Batch acquisition of 0 triggers
