2023-05-22 08:00:08.700 +07:00 [WRN] The ASP.NET Core developer certificate is not trusted. For information about trusting the ASP.NET Core developer certificate, see https://aka.ms/aspnet/https-trust-dev-cert.
2023-05-22 08:00:08.845 +07:00 [INF] Now listening on: https://localhost:7010
2023-05-22 08:00:08.892 +07:00 [INF] Now listening on: http://localhost:5280
2023-05-22 08:00:08.894 +07:00 [INF] Application started. Press Ctrl+C to shut down.
2023-05-22 08:00:08.895 +07:00 [INF] Hosting environment: Development
2023-05-22 08:00:08.895 +07:00 [INF] Content root path: C:\Project\IFMApps\IFMApps
2023-05-22 16:25:39.871 +07:00 [WRN] The ASP.NET Core developer certificate is not trusted. For information about trusting the ASP.NET Core developer certificate, see https://aka.ms/aspnet/https-trust-dev-cert.
2023-05-22 16:25:39.938 +07:00 [INF] Now listening on: https://localhost:7010
2023-05-22 16:25:39.939 +07:00 [INF] Now listening on: http://localhost:5280
2023-05-22 16:25:39.940 +07:00 [INF] Application started. Press Ctrl+C to shut down.
2023-05-22 16:25:39.940 +07:00 [INF] Hosting environment: Development
2023-05-22 16:25:39.940 +07:00 [INF] Content root path: C:\Project\IFMApps\IFMApps
2023-05-22 16:51:08.800 +07:00 [WRN] The ASP.NET Core developer certificate is not trusted. For information about trusting the ASP.NET Core developer certificate, see https://aka.ms/aspnet/https-trust-dev-cert.
2023-05-22 16:51:08.898 +07:00 [INF] Now listening on: https://localhost:7010
2023-05-22 16:51:08.899 +07:00 [INF] Now listening on: http://localhost:5280
2023-05-22 16:51:08.900 +07:00 [INF] Application started. Press Ctrl+C to shut down.
2023-05-22 16:51:08.900 +07:00 [INF] Hosting environment: Development
2023-05-22 16:51:08.900 +07:00 [INF] Content root path: C:\Project\IFMApps\IFMApps
2023-05-22 17:01:47.268 +07:00 [WRN] The ASP.NET Core developer certificate is not trusted. For information about trusting the ASP.NET Core developer certificate, see https://aka.ms/aspnet/https-trust-dev-cert.
2023-05-22 17:01:47.366 +07:00 [INF] Now listening on: https://localhost:7010
2023-05-22 17:01:47.367 +07:00 [INF] Now listening on: http://localhost:5280
2023-05-22 17:01:47.368 +07:00 [INF] Application started. Press Ctrl+C to shut down.
2023-05-22 17:01:47.368 +07:00 [INF] Hosting environment: Development
2023-05-22 17:01:47.368 +07:00 [INF] Content root path: C:\Project\IFMApps\IFMApps
2023-05-22 17:04:20.770 +07:00 [WRN] The ASP.NET Core developer certificate is not trusted. For information about trusting the ASP.NET Core developer certificate, see https://aka.ms/aspnet/https-trust-dev-cert.
2023-05-22 17:04:20.929 +07:00 [INF] Now listening on: https://localhost:7010
2023-05-22 17:04:20.931 +07:00 [INF] Now listening on: http://localhost:5280
2023-05-22 17:04:20.934 +07:00 [INF] Application started. Press Ctrl+C to shut down.
2023-05-22 17:04:20.934 +07:00 [INF] Hosting environment: Development
2023-05-22 17:04:20.934 +07:00 [INF] Content root path: C:\Project\IFMApps\IFMApps
2023-05-22 17:06:41.171 +07:00 [WRN] The ASP.NET Core developer certificate is not trusted. For information about trusting the ASP.NET Core developer certificate, see https://aka.ms/aspnet/https-trust-dev-cert.
2023-05-22 17:06:41.466 +07:00 [INF] Now listening on: https://localhost:7010
2023-05-22 17:06:41.468 +07:00 [INF] Now listening on: http://localhost:5280
2023-05-22 17:06:41.470 +07:00 [INF] Application started. Press Ctrl+C to shut down.
2023-05-22 17:06:41.470 +07:00 [INF] Hosting environment: Development
2023-05-22 17:06:41.471 +07:00 [INF] Content root path: C:\Project\IFMApps\IFMApps
2023-05-22 17:07:34.729 +07:00 [WRN] Unable to configure browser refresh script injection on the response. Consider manually adding '<script src="/_framework/aspnetcore-browser-refresh.js"></script>' to the body of the page.
2023-05-22 17:07:44.916 +07:00 [WRN] Unable to configure browser refresh script injection on the response. Consider manually adding '<script src="/_framework/aspnetcore-browser-refresh.js"></script>' to the body of the page.
