2023-05-16 09:26:18.873 +07:00 [WRN] The ASP.NET Core developer certificate is not trusted. For information about trusting the ASP.NET Core developer certificate, see https://aka.ms/aspnet/https-trust-dev-cert.
2023-05-16 09:26:19.333 +07:00 [INF] Now listening on: https://localhost:7010
2023-05-16 09:26:19.335 +07:00 [INF] Now listening on: http://localhost:5280
2023-05-16 09:26:19.338 +07:00 [INF] Application started. Press Ctrl+C to shut down.
2023-05-16 09:26:19.339 +07:00 [INF] Hosting environment: Development
2023-05-16 09:26:19.339 +07:00 [INF] Content root path: C:\Project\IFMApps\IFMApps
2023-05-16 09:31:50.092 +07:00 [WRN] The ASP.NET Core developer certificate is not trusted. For information about trusting the ASP.NET Core developer certificate, see https://aka.ms/aspnet/https-trust-dev-cert.
2023-05-16 09:31:50.447 +07:00 [INF] Now listening on: https://localhost:7010
2023-05-16 09:31:50.472 +07:00 [INF] Now listening on: http://localhost:5280
2023-05-16 09:31:50.475 +07:00 [INF] Application started. Press Ctrl+C to shut down.
2023-05-16 09:31:50.476 +07:00 [INF] Hosting environment: Development
2023-05-16 09:31:50.476 +07:00 [INF] Content root path: C:\Project\IFMApps\IFMApps
2023-05-16 09:34:54.456 +07:00 [WRN] The ASP.NET Core developer certificate is not trusted. For information about trusting the ASP.NET Core developer certificate, see https://aka.ms/aspnet/https-trust-dev-cert.
2023-05-16 09:34:54.719 +07:00 [INF] Now listening on: https://localhost:7010
2023-05-16 09:34:54.721 +07:00 [INF] Now listening on: http://localhost:5280
2023-05-16 09:34:54.723 +07:00 [INF] Application started. Press Ctrl+C to shut down.
2023-05-16 09:34:54.724 +07:00 [INF] Hosting environment: Development
2023-05-16 09:34:54.724 +07:00 [INF] Content root path: C:\Project\IFMApps\IFMApps
2023-05-16 09:36:35.021 +07:00 [INF] Controller : Report , Action : ReportPayroll , Route : ReportPayroll|Report
2023-05-16 09:36:52.902 +07:00 [INF] Controller : Report , Action : ReportPayroll , Route : ReportPayroll|Report
2023-05-16 09:56:28.871 +07:00 [WRN] The ASP.NET Core developer certificate is not trusted. For information about trusting the ASP.NET Core developer certificate, see https://aka.ms/aspnet/https-trust-dev-cert.
2023-05-16 09:56:29.151 +07:00 [INF] Now listening on: https://localhost:7010
2023-05-16 09:56:29.154 +07:00 [INF] Now listening on: http://localhost:5280
2023-05-16 09:56:29.157 +07:00 [INF] Application started. Press Ctrl+C to shut down.
2023-05-16 09:56:29.157 +07:00 [INF] Hosting environment: Development
2023-05-16 09:56:29.157 +07:00 [INF] Content root path: C:\Project\IFMApps\IFMApps
2023-05-16 10:00:31.456 +07:00 [INF] Controller : Report , Action : ReportPayroll , Route : ReportPayroll|Report
2023-05-16 10:05:50.795 +07:00 [INF] Controller : Report , Action : ReportPayroll , Route : ReportPayroll|Report
2023-05-16 10:06:27.417 +07:00 [INF] Controller : Report , Action : ReportPayroll , Route : ReportPayroll|Report
2023-05-16 10:07:02.729 +07:00 [INF] Controller : Report , Action : ReportPayroll , Route : ReportPayroll|Report
2023-05-16 10:09:02.306 +07:00 [INF] Controller : Report , Action : ReportPayroll , Route : ReportPayroll|Report
2023-05-16 10:09:24.605 +07:00 [INF] Controller : Report , Action : ReportPayroll , Route : ReportPayroll|Report
2023-05-16 10:09:37.250 +07:00 [INF] Controller : Report , Action : ReportPayroll , Route : ReportPayroll|Report
2023-05-16 10:09:57.557 +07:00 [INF] Controller : Report , Action : ReportPayroll , Route : ReportPayroll|Report
2023-05-16 10:10:00.072 +07:00 [ERR] System.IndexOutOfRangeException: Cannot find table 1.
   at System.Data.DataTableCollection.get_Item(Int32 index)
   at IFMApps.Controllers.ReportController.ReportPayroll(String Section, String DateParam) in C:\Project\IFMApps\IFMApps\Controllers\ReportController.cs:line 51
2023-05-16 10:10:00.073 +07:00 [INF] Controller : Report , Action : ReportPayroll , Route : ReportPayroll|Report
2023-05-16 11:15:47.918 +07:00 [WRN] The ASP.NET Core developer certificate is not trusted. For information about trusting the ASP.NET Core developer certificate, see https://aka.ms/aspnet/https-trust-dev-cert.
2023-05-16 11:15:48.201 +07:00 [INF] Now listening on: https://localhost:7010
2023-05-16 11:15:48.213 +07:00 [INF] Now listening on: http://localhost:5280
2023-05-16 11:15:48.216 +07:00 [INF] Application started. Press Ctrl+C to shut down.
2023-05-16 11:15:48.217 +07:00 [INF] Hosting environment: Development
2023-05-16 11:15:48.217 +07:00 [INF] Content root path: C:\Project\IFMApps\IFMApps
2023-05-16 11:16:20.655 +07:00 [ERR] An unhandled exception has occurred while executing the request.
System.ArgumentNullException: Value cannot be null. (Parameter 'path1')
   at System.ArgumentNullException.Throw(String paramName)
   at System.IO.Path.Combine(String path1, String path2)
   at Rotativa.AspNetCore.WkhtmlDriver.Convert(String wkhtmlPath, String switches, String html, String wkhtmlExe)
   at Rotativa.AspNetCore.WkhtmltopdfDriver.ConvertHtml(String wkhtmltopdfPath, String switches, String html)
   at Rotativa.AspNetCore.ViewAsPdf.CallTheDriver(ActionContext context)
   at Rotativa.AspNetCore.AsResultBase.BuildFile(ActionContext context)
   at Rotativa.AspNetCore.AsResultBase.ExecuteResultAsync(ActionContext context)
   at Microsoft.AspNetCore.Mvc.Infrastructure.ResourceInvoker.<InvokeNextResultFilterAsync>g__Awaited|30_0[TFilter,TFilterAsync](ResourceInvoker invoker, Task lastTask, State next, Scope scope, Object state, Boolean isCompleted)
   at Microsoft.AspNetCore.Mvc.Infrastructure.ResourceInvoker.Rethrow(ResultExecutedContextSealed context)
   at Microsoft.AspNetCore.Mvc.Infrastructure.ResourceInvoker.ResultNext[TFilter,TFilterAsync](State& next, Scope& scope, Object& state, Boolean& isCompleted)
   at Microsoft.AspNetCore.Mvc.Infrastructure.ResourceInvoker.InvokeResultFilters()
--- End of stack trace from previous location ---
   at Microsoft.AspNetCore.Mvc.Infrastructure.ResourceInvoker.<InvokeNextResourceFilter>g__Awaited|25_0(ResourceInvoker invoker, Task lastTask, State next, Scope scope, Object state, Boolean isCompleted)
   at Microsoft.AspNetCore.Mvc.Infrastructure.ResourceInvoker.Rethrow(ResourceExecutedContextSealed context)
   at Microsoft.AspNetCore.Mvc.Infrastructure.ResourceInvoker.Next(State& next, Scope& scope, Object& state, Boolean& isCompleted)
   at Microsoft.AspNetCore.Mvc.Infrastructure.ResourceInvoker.<InvokeFilterPipelineAsync>g__Awaited|20_0(ResourceInvoker invoker, Task lastTask, State next, Scope scope, Object state, Boolean isCompleted)
   at Microsoft.AspNetCore.Mvc.Infrastructure.ResourceInvoker.<InvokeAsync>g__Awaited|17_0(ResourceInvoker invoker, Task task, IDisposable scope)
   at Microsoft.AspNetCore.Mvc.Infrastructure.ResourceInvoker.<InvokeAsync>g__Awaited|17_0(ResourceInvoker invoker, Task task, IDisposable scope)
   at Microsoft.AspNetCore.Routing.EndpointMiddleware.<Invoke>g__AwaitRequestTask|6_0(Endpoint endpoint, Task requestTask, ILogger logger)
   at Microsoft.AspNetCore.Authorization.AuthorizationMiddleware.Invoke(HttpContext context)
   at Microsoft.AspNetCore.Authentication.AuthenticationMiddleware.Invoke(HttpContext context)
   at Microsoft.AspNetCore.Diagnostics.DeveloperExceptionPageMiddlewareImpl.Invoke(HttpContext context)
2023-05-16 11:17:31.124 +07:00 [WRN] The ASP.NET Core developer certificate is not trusted. For information about trusting the ASP.NET Core developer certificate, see https://aka.ms/aspnet/https-trust-dev-cert.
2023-05-16 11:17:31.389 +07:00 [INF] Now listening on: https://localhost:7010
2023-05-16 11:17:31.392 +07:00 [INF] Now listening on: http://localhost:5280
2023-05-16 11:17:31.395 +07:00 [INF] Application started. Press Ctrl+C to shut down.
2023-05-16 11:17:31.395 +07:00 [INF] Hosting environment: Development
2023-05-16 11:17:31.396 +07:00 [INF] Content root path: C:\Project\IFMApps\IFMApps
2023-05-16 11:18:23.334 +07:00 [ERR] An unhandled exception has occurred while executing the request.
System.ArgumentNullException: Value cannot be null. (Parameter 'path1')
   at System.ArgumentNullException.Throw(String paramName)
   at System.IO.Path.Combine(String path1, String path2)
   at Rotativa.AspNetCore.WkhtmlDriver.Convert(String wkhtmlPath, String switches, String html, String wkhtmlExe)
   at Rotativa.AspNetCore.WkhtmltopdfDriver.ConvertHtml(String wkhtmltopdfPath, String switches, String html)
   at Rotativa.AspNetCore.ViewAsPdf.CallTheDriver(ActionContext context)
   at Rotativa.AspNetCore.AsResultBase.BuildFile(ActionContext context)
   at Rotativa.AspNetCore.AsResultBase.ExecuteResultAsync(ActionContext context)
   at Microsoft.AspNetCore.Mvc.Infrastructure.ResourceInvoker.<InvokeNextResultFilterAsync>g__Awaited|30_0[TFilter,TFilterAsync](ResourceInvoker invoker, Task lastTask, State next, Scope scope, Object state, Boolean isCompleted)
   at Microsoft.AspNetCore.Mvc.Infrastructure.ResourceInvoker.Rethrow(ResultExecutedContextSealed context)
   at Microsoft.AspNetCore.Mvc.Infrastructure.ResourceInvoker.ResultNext[TFilter,TFilterAsync](State& next, Scope& scope, Object& state, Boolean& isCompleted)
   at Microsoft.AspNetCore.Mvc.Infrastructure.ResourceInvoker.InvokeResultFilters()
--- End of stack trace from previous location ---
   at Microsoft.AspNetCore.Mvc.Infrastructure.ResourceInvoker.<InvokeNextResourceFilter>g__Awaited|25_0(ResourceInvoker invoker, Task lastTask, State next, Scope scope, Object state, Boolean isCompleted)
   at Microsoft.AspNetCore.Mvc.Infrastructure.ResourceInvoker.Rethrow(ResourceExecutedContextSealed context)
   at Microsoft.AspNetCore.Mvc.Infrastructure.ResourceInvoker.Next(State& next, Scope& scope, Object& state, Boolean& isCompleted)
   at Microsoft.AspNetCore.Mvc.Infrastructure.ResourceInvoker.<InvokeFilterPipelineAsync>g__Awaited|20_0(ResourceInvoker invoker, Task lastTask, State next, Scope scope, Object state, Boolean isCompleted)
   at Microsoft.AspNetCore.Mvc.Infrastructure.ResourceInvoker.<InvokeAsync>g__Awaited|17_0(ResourceInvoker invoker, Task task, IDisposable scope)
   at Microsoft.AspNetCore.Mvc.Infrastructure.ResourceInvoker.<InvokeAsync>g__Awaited|17_0(ResourceInvoker invoker, Task task, IDisposable scope)
   at Microsoft.AspNetCore.Routing.EndpointMiddleware.<Invoke>g__AwaitRequestTask|6_0(Endpoint endpoint, Task requestTask, ILogger logger)
   at Microsoft.AspNetCore.Authorization.AuthorizationMiddleware.Invoke(HttpContext context)
   at Microsoft.AspNetCore.Authentication.AuthenticationMiddleware.Invoke(HttpContext context)
   at Microsoft.AspNetCore.Diagnostics.DeveloperExceptionPageMiddlewareImpl.Invoke(HttpContext context)
2023-05-16 11:18:49.828 +07:00 [ERR] An unhandled exception has occurred while executing the request.
System.ArgumentNullException: Value cannot be null. (Parameter 'path1')
   at System.ArgumentNullException.Throw(String paramName)
   at System.IO.Path.Combine(String path1, String path2)
   at Rotativa.AspNetCore.WkhtmlDriver.Convert(String wkhtmlPath, String switches, String html, String wkhtmlExe)
   at Rotativa.AspNetCore.WkhtmltopdfDriver.ConvertHtml(String wkhtmltopdfPath, String switches, String html)
   at Rotativa.AspNetCore.ViewAsPdf.CallTheDriver(ActionContext context)
   at Rotativa.AspNetCore.AsResultBase.BuildFile(ActionContext context)
   at Rotativa.AspNetCore.AsResultBase.ExecuteResultAsync(ActionContext context)
   at Microsoft.AspNetCore.Mvc.Infrastructure.ResourceInvoker.<InvokeNextResultFilterAsync>g__Awaited|30_0[TFilter,TFilterAsync](ResourceInvoker invoker, Task lastTask, State next, Scope scope, Object state, Boolean isCompleted)
   at Microsoft.AspNetCore.Mvc.Infrastructure.ResourceInvoker.Rethrow(ResultExecutedContextSealed context)
   at Microsoft.AspNetCore.Mvc.Infrastructure.ResourceInvoker.ResultNext[TFilter,TFilterAsync](State& next, Scope& scope, Object& state, Boolean& isCompleted)
   at Microsoft.AspNetCore.Mvc.Infrastructure.ResourceInvoker.InvokeResultFilters()
--- End of stack trace from previous location ---
   at Microsoft.AspNetCore.Mvc.Infrastructure.ResourceInvoker.<InvokeNextResourceFilter>g__Awaited|25_0(ResourceInvoker invoker, Task lastTask, State next, Scope scope, Object state, Boolean isCompleted)
   at Microsoft.AspNetCore.Mvc.Infrastructure.ResourceInvoker.Rethrow(ResourceExecutedContextSealed context)
   at Microsoft.AspNetCore.Mvc.Infrastructure.ResourceInvoker.Next(State& next, Scope& scope, Object& state, Boolean& isCompleted)
   at Microsoft.AspNetCore.Mvc.Infrastructure.ResourceInvoker.<InvokeFilterPipelineAsync>g__Awaited|20_0(ResourceInvoker invoker, Task lastTask, State next, Scope scope, Object state, Boolean isCompleted)
   at Microsoft.AspNetCore.Mvc.Infrastructure.ResourceInvoker.<InvokeAsync>g__Awaited|17_0(ResourceInvoker invoker, Task task, IDisposable scope)
   at Microsoft.AspNetCore.Mvc.Infrastructure.ResourceInvoker.<InvokeAsync>g__Awaited|17_0(ResourceInvoker invoker, Task task, IDisposable scope)
   at Microsoft.AspNetCore.Routing.EndpointMiddleware.<Invoke>g__AwaitRequestTask|6_0(Endpoint endpoint, Task requestTask, ILogger logger)
   at Microsoft.AspNetCore.Authorization.AuthorizationMiddleware.Invoke(HttpContext context)
   at Microsoft.AspNetCore.Authentication.AuthenticationMiddleware.Invoke(HttpContext context)
   at Microsoft.AspNetCore.Diagnostics.DeveloperExceptionPageMiddlewareImpl.Invoke(HttpContext context)
2023-05-16 11:19:39.301 +07:00 [WRN] The ASP.NET Core developer certificate is not trusted. For information about trusting the ASP.NET Core developer certificate, see https://aka.ms/aspnet/https-trust-dev-cert.
2023-05-16 11:19:39.507 +07:00 [INF] Now listening on: https://localhost:7010
2023-05-16 11:19:39.509 +07:00 [INF] Now listening on: http://localhost:5280
2023-05-16 11:19:39.511 +07:00 [INF] Application started. Press Ctrl+C to shut down.
2023-05-16 11:19:39.511 +07:00 [INF] Hosting environment: Development
2023-05-16 11:19:39.512 +07:00 [INF] Content root path: C:\Project\IFMApps\IFMApps
2023-05-16 11:20:15.202 +07:00 [ERR] An unhandled exception has occurred while executing the request.
System.ArgumentNullException: Value cannot be null. (Parameter 'path1')
   at System.ArgumentNullException.Throw(String paramName)
   at System.IO.Path.Combine(String path1, String path2)
   at Rotativa.AspNetCore.WkhtmlDriver.Convert(String wkhtmlPath, String switches, String html, String wkhtmlExe)
   at Rotativa.AspNetCore.WkhtmltopdfDriver.ConvertHtml(String wkhtmltopdfPath, String switches, String html)
   at Rotativa.AspNetCore.ViewAsPdf.CallTheDriver(ActionContext context)
   at Rotativa.AspNetCore.AsResultBase.BuildFile(ActionContext context)
   at Rotativa.AspNetCore.AsResultBase.ExecuteResultAsync(ActionContext context)
   at Microsoft.AspNetCore.Mvc.Infrastructure.ResourceInvoker.<InvokeNextResultFilterAsync>g__Awaited|30_0[TFilter,TFilterAsync](ResourceInvoker invoker, Task lastTask, State next, Scope scope, Object state, Boolean isCompleted)
   at Microsoft.AspNetCore.Mvc.Infrastructure.ResourceInvoker.Rethrow(ResultExecutedContextSealed context)
   at Microsoft.AspNetCore.Mvc.Infrastructure.ResourceInvoker.ResultNext[TFilter,TFilterAsync](State& next, Scope& scope, Object& state, Boolean& isCompleted)
   at Microsoft.AspNetCore.Mvc.Infrastructure.ResourceInvoker.InvokeResultFilters()
--- End of stack trace from previous location ---
   at Microsoft.AspNetCore.Mvc.Infrastructure.ResourceInvoker.<InvokeNextResourceFilter>g__Awaited|25_0(ResourceInvoker invoker, Task lastTask, State next, Scope scope, Object state, Boolean isCompleted)
   at Microsoft.AspNetCore.Mvc.Infrastructure.ResourceInvoker.Rethrow(ResourceExecutedContextSealed context)
   at Microsoft.AspNetCore.Mvc.Infrastructure.ResourceInvoker.Next(State& next, Scope& scope, Object& state, Boolean& isCompleted)
   at Microsoft.AspNetCore.Mvc.Infrastructure.ResourceInvoker.<InvokeFilterPipelineAsync>g__Awaited|20_0(ResourceInvoker invoker, Task lastTask, State next, Scope scope, Object state, Boolean isCompleted)
   at Microsoft.AspNetCore.Mvc.Infrastructure.ResourceInvoker.<InvokeAsync>g__Awaited|17_0(ResourceInvoker invoker, Task task, IDisposable scope)
   at Microsoft.AspNetCore.Mvc.Infrastructure.ResourceInvoker.<InvokeAsync>g__Awaited|17_0(ResourceInvoker invoker, Task task, IDisposable scope)
   at Microsoft.AspNetCore.Routing.EndpointMiddleware.<Invoke>g__AwaitRequestTask|6_0(Endpoint endpoint, Task requestTask, ILogger logger)
   at Microsoft.AspNetCore.Authorization.AuthorizationMiddleware.Invoke(HttpContext context)
   at Microsoft.AspNetCore.Authentication.AuthenticationMiddleware.Invoke(HttpContext context)
   at Microsoft.AspNetCore.Diagnostics.DeveloperExceptionPageMiddlewareImpl.Invoke(HttpContext context)
2023-05-16 11:24:52.224 +07:00 [ERR] An unhandled exception has occurred while executing the request.
System.ArgumentNullException: Value cannot be null. (Parameter 'path1')
   at System.ArgumentNullException.Throw(String paramName)
   at System.IO.Path.Combine(String path1, String path2)
   at Rotativa.AspNetCore.WkhtmlDriver.Convert(String wkhtmlPath, String switches, String html, String wkhtmlExe)
   at Rotativa.AspNetCore.WkhtmltopdfDriver.ConvertHtml(String wkhtmltopdfPath, String switches, String html)
   at Rotativa.AspNetCore.ViewAsPdf.CallTheDriver(ActionContext context)
   at Rotativa.AspNetCore.AsResultBase.BuildFile(ActionContext context)
   at Rotativa.AspNetCore.AsResultBase.ExecuteResultAsync(ActionContext context)
   at Microsoft.AspNetCore.Mvc.Infrastructure.ResourceInvoker.<InvokeNextResultFilterAsync>g__Awaited|30_0[TFilter,TFilterAsync](ResourceInvoker invoker, Task lastTask, State next, Scope scope, Object state, Boolean isCompleted)
   at Microsoft.AspNetCore.Mvc.Infrastructure.ResourceInvoker.Rethrow(ResultExecutedContextSealed context)
   at Microsoft.AspNetCore.Mvc.Infrastructure.ResourceInvoker.ResultNext[TFilter,TFilterAsync](State& next, Scope& scope, Object& state, Boolean& isCompleted)
   at Microsoft.AspNetCore.Mvc.Infrastructure.ResourceInvoker.InvokeResultFilters()
--- End of stack trace from previous location ---
   at Microsoft.AspNetCore.Mvc.Infrastructure.ResourceInvoker.<InvokeNextResourceFilter>g__Awaited|25_0(ResourceInvoker invoker, Task lastTask, State next, Scope scope, Object state, Boolean isCompleted)
   at Microsoft.AspNetCore.Mvc.Infrastructure.ResourceInvoker.Rethrow(ResourceExecutedContextSealed context)
   at Microsoft.AspNetCore.Mvc.Infrastructure.ResourceInvoker.Next(State& next, Scope& scope, Object& state, Boolean& isCompleted)
   at Microsoft.AspNetCore.Mvc.Infrastructure.ResourceInvoker.<InvokeFilterPipelineAsync>g__Awaited|20_0(ResourceInvoker invoker, Task lastTask, State next, Scope scope, Object state, Boolean isCompleted)
   at Microsoft.AspNetCore.Mvc.Infrastructure.ResourceInvoker.<InvokeAsync>g__Awaited|17_0(ResourceInvoker invoker, Task task, IDisposable scope)
   at Microsoft.AspNetCore.Mvc.Infrastructure.ResourceInvoker.<InvokeAsync>g__Awaited|17_0(ResourceInvoker invoker, Task task, IDisposable scope)
   at Microsoft.AspNetCore.Routing.EndpointMiddleware.<Invoke>g__AwaitRequestTask|6_0(Endpoint endpoint, Task requestTask, ILogger logger)
   at Microsoft.AspNetCore.Authorization.AuthorizationMiddleware.Invoke(HttpContext context)
   at Microsoft.AspNetCore.Authentication.AuthenticationMiddleware.Invoke(HttpContext context)
   at Microsoft.AspNetCore.Diagnostics.DeveloperExceptionPageMiddlewareImpl.Invoke(HttpContext context)
2023-05-16 11:25:47.653 +07:00 [WRN] The ASP.NET Core developer certificate is not trusted. For information about trusting the ASP.NET Core developer certificate, see https://aka.ms/aspnet/https-trust-dev-cert.
2023-05-16 11:25:47.942 +07:00 [INF] Now listening on: https://localhost:7010
2023-05-16 11:25:47.946 +07:00 [INF] Now listening on: http://localhost:5280
2023-05-16 11:25:47.980 +07:00 [INF] Application started. Press Ctrl+C to shut down.
2023-05-16 11:25:47.980 +07:00 [INF] Hosting environment: Development
2023-05-16 11:25:47.980 +07:00 [INF] Content root path: C:\Project\IFMApps\IFMApps
2023-05-16 11:44:29.780 +07:00 [WRN] The ASP.NET Core developer certificate is not trusted. For information about trusting the ASP.NET Core developer certificate, see https://aka.ms/aspnet/https-trust-dev-cert.
2023-05-16 11:44:29.985 +07:00 [INF] Now listening on: https://localhost:7010
2023-05-16 11:44:30.001 +07:00 [INF] Now listening on: http://localhost:5280
2023-05-16 11:44:30.004 +07:00 [INF] Application started. Press Ctrl+C to shut down.
2023-05-16 11:44:30.005 +07:00 [INF] Hosting environment: Development
2023-05-16 11:44:30.005 +07:00 [INF] Content root path: C:\Project\IFMApps\IFMApps
2023-05-16 11:46:55.078 +07:00 [WRN] The ASP.NET Core developer certificate is not trusted. For information about trusting the ASP.NET Core developer certificate, see https://aka.ms/aspnet/https-trust-dev-cert.
2023-05-16 11:46:55.302 +07:00 [INF] Now listening on: https://localhost:7010
2023-05-16 11:46:55.309 +07:00 [INF] Now listening on: http://localhost:5280
2023-05-16 11:46:55.313 +07:00 [INF] Application started. Press Ctrl+C to shut down.
2023-05-16 11:46:55.318 +07:00 [INF] Hosting environment: Development
2023-05-16 11:46:55.318 +07:00 [INF] Content root path: C:\Project\IFMApps\IFMApps
2023-05-16 11:47:58.895 +07:00 [INF] Controller : Report , Action : ReportSite , Route : ReportSite|Report
2023-05-16 11:48:07.365 +07:00 [INF] Controller : Report , Action : ReportSite , Route : ReportSite|Report
2023-05-16 11:51:25.573 +07:00 [WRN] The ASP.NET Core developer certificate is not trusted. For information about trusting the ASP.NET Core developer certificate, see https://aka.ms/aspnet/https-trust-dev-cert.
2023-05-16 11:51:25.776 +07:00 [INF] Now listening on: https://localhost:7010
2023-05-16 11:51:25.781 +07:00 [INF] Now listening on: http://localhost:5280
2023-05-16 11:51:25.793 +07:00 [INF] Application started. Press Ctrl+C to shut down.
2023-05-16 11:51:25.793 +07:00 [INF] Hosting environment: Development
2023-05-16 11:51:25.794 +07:00 [INF] Content root path: C:\Project\IFMApps\IFMApps
2023-05-16 11:53:39.740 +07:00 [WRN] The ASP.NET Core developer certificate is not trusted. For information about trusting the ASP.NET Core developer certificate, see https://aka.ms/aspnet/https-trust-dev-cert.
2023-05-16 11:53:40.062 +07:00 [INF] Now listening on: https://localhost:7010
2023-05-16 11:53:40.064 +07:00 [INF] Now listening on: http://localhost:5280
2023-05-16 11:53:40.066 +07:00 [INF] Application started. Press Ctrl+C to shut down.
2023-05-16 11:53:40.067 +07:00 [INF] Hosting environment: Development
2023-05-16 11:53:40.067 +07:00 [INF] Content root path: C:\Project\IFMApps\IFMApps
2023-05-16 11:55:06.728 +07:00 [INF] Controller : Report , Action : ReportSite , Route : ReportSite|Report
